CLOCK/CLOCK.sim/sim_1/behav/xsim/simulate.log
Time resolution is 1 ps
1
_hour: 0, _min: 0, _second: 0, Second: 0
_hour: 0, _min: 0, _second: 1, Second: 1
_hour: 0, _min: 0, _second: 2, Second: 2
_hour: 0, _min: 0, _second: 3, Second: 3
_hour: 0, _min: 0, _second: 4, Second: 4
_hour: 0, _min: 0, _second: 5, Second: 5
_hour: 0, _min: 0, _second: 6, Second: 6
_hour: 0, _min: 0, _second: 7, Second: 7
_hour: 0, _min: 0, _second: 8, Second: 8
_hour: 0, _min: 0, _second: 9, Second: 9
_hour: 0, _min: 0, _second:10, Second:10
_hour: 0, _min: 0, _second:11, Second:11
_hour: 0, _min: 0, _second:12, Second:12
_hour: 0, _min: 0, _second:13, Second:13
_hour: 0, _min: 0, _second:14, Second:14
_hour: 0, _min: 0, _second:15, Second:15
_hour: 0, _min: 0, _second:16, Second:16
_hour: 0, _min: 0, _second:17, Second:17
_hour: 0, _min: 0, _second:18, Second:18
_hour: 0, _min: 0, _second:19, Second:19
_hour: 0, _min: 0, _second:20, Second:20
_hour: 0, _min: 0, _second:21, Second:21
_hour: 0, _min: 0, _second:22, Second:22
_hour: 0, _min: 0, _second:23, Second:23
_hour: 0, _min: 0, _second:24, Second:24
_hour: 0, _min: 0, _second:25, Second:25
_hour: 0, _min: 0, _second:26, Second:26
_hour: 0, _min: 0, _second:27, Second:27
_hour: 0, _min: 0, _second:28, Second:28
_hour: 0, _min: 0, _second:29, Second:29
_hour: 0, _min: 0, _second:30, Second:30
_hour: 0, _min: 0, _second:31, Second:31
_hour: 0, _min: 0, _second:32, Second:32
_hour: 0, _min: 0, _second:33, Second:33
_hour: 0, _min: 0, _second:34, Second:34
_hour: 0, _min: 0, _second:35, Second:35
_hour: 0, _min: 0, _second:36, Second:36
_hour: 0, _min: 0, _second:37, Second:37
_hour: 0, _min: 0, _second:38, Second:38
_hour: 0, _min: 0, _second:39, Second:39
_hour: 0, _min: 0, _second:40, Second:40
_hour: 0, _min: 0, _second:41, Second:41
_hour: 0, _min: 0, _second:42, Second:42
_hour: 0, _min: 0, _second:43, Second:43
_hour: 0, _min: 0, _second:44, Second:44
_hour: 0, _min: 0, _second:45, Second:45
_hour: 0, _min: 0, _second:46, Second:46
_hour: 0, _min: 0, _second:47, Second:47
_hour: 0, _min: 0, _second:48, Second:48
_hour: 0, _min: 0, _second:49, Second:49
_hour: 0, _min: 0, _second:50, Second:50
_hour: 0, _min: 0, _second:51, Second:51
_hour: 0, _min: 0, _second:52, Second:52
_hour: 0, _min: 0, _second:53, Second:53
_hour: 0, _min: 0, _second:54, Second:54
_hour: 0, _min: 0, _second:55, Second:55
_hour: 0, _min: 0, _second:56, Second:56
_hour: 0, _min: 0, _second:57, Second:57
_hour: 0, _min: 0, _second:58, Second:58
_hour: 0, _min: 0, _second:59, Second:59
_hour: 0, _min: 1, _second: 0, Second: 0
_hour: 0, _min: 1, _second: 1, Second: 1
_hour: 0, _min: 1, _second: 2, Second: 2
_hour: 0, _min: 1, _second: 3, Second: 3
_hour: 0, _min: 1, _second: 4, Second: 4
_hour: 0, _min: 1, _second: 5, Second: 5
_hour: 0, _min: 1, _second: 6, Second: 6
_hour: 0, _min: 1, _second: 7, Second: 7
_hour: 0, _min: 1, _second: 8, Second: 8
_hour: 0, _min: 1, _second: 9, Second: 9
_hour: 0, _min: 1, _second:10, Second:10
_hour: 0, _min: 1, _second:11, Second:11
_hour: 0, _min: 1, _second:12, Second:12
_hour: 0, _min: 1, _second:13, Second:13
_hour: 0, _min: 1, _second:14, Second:14
_hour: 0, _min: 1, _second:15, Second:15
_hour: 0, _min: 1, _second:16, Second:16
_hour: 0, _min: 1, _second:17, Second:17
_hour: 0, _min: 1, _second:18, Second:18
_hour: 0, _min: 1, _second:19, Second:19
_hour: 0, _min: 1, _second:20, Second:20
_hour: 0, _min: 1, _second:21, Second:21
_hour: 0, _min: 1, _second:22, Second:22
_hour: 0, _min: 1, _second:23, Second:23
_hour: 0, _min: 1, _second:24, Second:24
_hour: 0, _min: 1, _second:25, Second:25
_hour: 0, _min: 1, _second:26, Second:26
_hour: 0, _min: 1, _second:27, Second:27
_hour: 0, _min: 1, _second:28, Second:28
_hour: 0, _min: 1, _second:29, Second:29
_hour: 0, _min: 1, _second:30, Second:30
_hour: 0, _min: 1, _second:31, Second:31
_hour: 0, _min: 1, _second:32, Second:32
_hour: 0, _min: 1, _second:33, Second:33
_hour: 0, _min: 1, _second:34, Second:34
_hour: 0, _min: 1, _second:35, Second:35
_hour: 0, _min: 1, _second:36, Second:36
_hour: 0, _min: 1, _second:37, Second:37
_hour: 0, _min: 1, _second:38, Second:38
_hour: 0, _min: 1, _second:39, Second:39
_hour: 0, _min: 1, _second:40, Second:40
_hour: 0, _min: 1, _second:41, Second:41
_hour: 0, _min: 1, _second:42, Second:42
_hour: 0, _min: 1, _second:43, Second:43
_hour: 0, _min: 1, _second:44, Second:44
_hour: 0, _min: 1, _second:45, Second:45
_hour: 0, _min: 1, _second:46, Second:46
_hour: 0, _min: 1, _second:47, Second:47
_hour: 0, _min: 1, _second:48, Second:48
_hour: 0, _min: 1, _second:49, Second:49
_hour: 0, _min: 1, _second:50, Second:50
_hour: 0, _min: 1, _second:51, Second:51
_hour: 0, _min: 1, _second:52, Second:52
_hour: 0, _min: 1, _second:53, Second:53
_hour: 0, _min: 1, _second:54, Second:54
_hour: 0, _min: 1, _second:55, Second:55
_hour: 0, _min: 1, _second:56, Second:56
_hour: 0, _min: 1, _second:57, Second:57
_hour: 0, _min: 1, _second:58, Second:58
_hour: 0, _min: 1, _second:59, Second:59
_hour: 0, _min: 2, _second: 0, Second: 0
_hour: 0, _min: 2, _second: 1, Second: 1
_hour: 0, _min: 2, _second: 2, Second: 2
_hour: 0, _min: 2, _second: 3, Second: 3
_hour: 0, _min: 2, _second: 4, Second: 4
_hour: 0, _min: 2, _second: 5, Second: 5
_hour: 0, _min: 2, _second: 6, Second: 6
_hour: 0, _min: 2, _second: 7, Second: 7
_hour: 0, _min: 2, _second: 8, Second: 8
_hour: 0, _min: 2, _second: 9, Second: 9
_hour: 0, _min: 2, _second:10, Second:10
_hour: 0, _min: 2, _second:11, Second:11
_hour: 0, _min: 2, _second:12, Second:12
_hour: 0, _min: 2, _second:13, Second:13
_hour: 0, _min: 2, _second:14, Second:14
_hour: 0, _min: 2, _second:15, Second:15
_hour: 0, _min: 2, _second:16, Second:16
_hour: 0, _min: 2, _second:17, Second:17
_hour: 0, _min: 2, _second:18, Second:18
_hour: 0, _min: 2, _second:19, Second:19
_hour: 0, _min: 2, _second:20, Second:20
_hour: 0, _min: 2, _second:21, Second:21
_hour: 0, _min: 2, _second:22, Second:22
_hour: 0, _min: 2, _second:23, Second:23
_hour: 0, _min: 2, _second:24, Second:24
_hour: 0, _min: 2, _second:25, Second:25
_hour: 0, _min: 2, _second:26, Second:26
_hour: 0, _min: 2, _second:27, Second:27
_hour: 0, _min: 2, _second:28, Second:28
_hour: 0, _min: 2, _second:29, Second:29
_hour: 0, _min: 2, _second:30, Second:30
_hour: 0, _min: 2, _second:31, Second:31
_hour: 0, _min: 2, _second:32, Second:32
_hour: 0, _min: 2, _second:33, Second:33
_hour: 0, _min: 2, _second:34, Second:34
_hour: 0, _min: 2, _second:35, Second:35
_hour: 0, _min: 2, _second:36, Second:36
_hour: 0, _min: 2, _second:37, Second:37
_hour: 0, _min: 2, _second:38, Second:38
_hour: 0, _min: 2, _second:39, Second:39
_hour: 0, _min: 2, _second:40, Second:40
_hour: 0, _min: 2, _second:41, Second:41
_hour: 0, _min: 2, _second:42, Second:42
_hour: 0, _min: 2, _second:43, Second:43
_hour: 0, _min: 2, _second:44, Second:44
_hour: 0, _min: 2, _second:45, Second:45
_hour: 0, _min: 2, _second:46, Second:46
_hour: 0, _min: 2, _second:47, Second:47
_hour: 0, _min: 2, _second:48, Second:48
_hour: 0, _min: 2, _second:49, Second:49
_hour: 0, _min: 2, _second:50, Second:50
_hour: 0, _min: 2, _second:51, Second:51
_hour: 0, _min: 2, _second:52, Second:52
_hour: 0, _min: 2, _second:53, Second:53
_hour: 0, _min: 2, _second:54, Second:54
_hour: 0, _min: 2, _second:55, Second:55
_hour: 0, _min: 2, _second:56, Second:56
_hour: 0, _min: 2, _second:57, Second:57
_hour: 0, _min: 2, _second:58, Second:58
_hour: 0, _min: 2, _second:59, Second:59
_hour: 0, _min: 3, _second: 0, Second: 0
_hour: 0, _min: 3, _second: 1, Second: 1
_hour: 0, _min: 3, _second: 2, Second: 2
_hour: 0, _min: 3, _second: 3, Second: 3
_hour: 0, _min: 3, _second: 4, Second: 4
_hour: 0, _min: 3, _second: 5, Second: 5
_hour: 0, _min: 3, _second: 6, Second: 6
_hour: 0, _min: 3, _second: 7, Second: 7
_hour: 0, _min: 3, _second: 8, Second: 8
_hour: 0, _min: 3, _second: 9, Second: 9
_hour: 0, _min: 3, _second:10, Second:10
_hour: 0, _min: 3, _second:11, Second:11
_hour: 0, _min: 3, _second:12, Second:12
_hour: 0, _min: 3, _second:13, Second:13
_hour: 0, _min: 3, _second:14, Second:14
_hour: 0, _min: 3, _second:15, Second:15
_hour: 0, _min: 3, _second:16, Second:16
_hour: 0, _min: 3, _second:17, Second:17
_hour: 0, _min: 3, _second:18, Second:18
_hour: 0, _min: 3, _second:19, Second:19
_hour: 0, _min: 3, _second:20, Second:20
_hour: 0, _min: 3, _second:21, Second:21
_hour: 0, _min: 3, _second:22, Second:22
_hour: 0, _min: 3, _second:23, Second:23
_hour: 0, _min: 3, _second:24, Second:24
_hour: 0, _min: 3, _second:25, Second:25
_hour: 0, _min: 3, _second:26, Second:26
_hour: 0, _min: 3, _second:27, Second:27
_hour: 0, _min: 3, _second:28, Second:28
_hour: 0, _min: 3, _second:29, Second:29
_hour: 0, _min: 3, _second:30, Second:30
$stop called at time : 21010 ns : File "C:/Users/nnyil/Desktop/CLOCK/CLOCK.srcs/sim_1/new/top_Sim.v" Line 92
